898382 254043
916897 3639
845905 686603
66949 776020
266416 286034
141333 288654
592932 729436
262734 937034
46072 967582
273617 199010
487986 708615
215820 584719
896614 970272
390267 579903
656282 614244
64367 346547
712305 583664
629407 594101
888665 776945
209773 655779
487464 14821
755871 999355
591065 769769
676293 886503
296282 826626
482065 112680
341180 67486
569456 529227
308598 938666
60859 71598
265871 717865
441087 291561
488884 220594
743231 702302
483301 349598
350891 774422
495420 921181
668972 333432
825184 375666
814160 55249
355240 823786
804862 562467
781167 182655
174025 956905
673219 265705
110910 688901
239803 189532
448618 907459
375394 193672
748514 730826
312457 61955
209253 69407
241762 495797
539212 308435
370798 886136
957394 937787
148617 927559
92848 803459
915256 756216
35887 975434
755577 818658
993848 526400
70163 628763
384896 205793
251856 49077
487590 220677
265066 213379
829714 272404
248232 243433
211701 771353
953652 497319
431505 638555
145110 501419
761009 994971
711694 367966
822808 49376
850034 482839
867405 791875
520888 388242
132459 105604
358165 984478
603520 520729
431274 477754
616529 904477
428561 61607
966484 982020
948648 822091
376354 774826
180142 518395
856132 934241
495148 556561
558144 217744
549793 53217
512217 559273
712348 766030
831825 82179
595949 834445
481030 259085
298422 859585
312882 460775
107957 326451
679028 829711
135176 71789
653911 290782
897428 393153
488759 185520
962227 409182
88046 914213
216361 38345
113772 412092
1730 483125
985886 198669
94011 432248
398866 87971
623457 531579
97354 445500
257040 257123
601032 186877
925275 54638
993767 936091
100580 525053
295423 881495
52272 769788
269652 822755
245820 685506
716029 964625
482046 601608
115102 448113
144022 56135
993737 614727
964939 189414
228043 878372
470036 330635
983842 799956
216759 519576
305739 949585
663737 803705
687979 580192
285607 776686
4792 156611
820546 603177
726802 124881
267498 295211
82409 303061
383386 359812
72831 821690
239262 109764
246049 637214
508540 300918
713916 100841
597222 14490
905273 122404
585227 866985
341342 244579
149048 207568
521201 143816
652647 97457
467275 786399
722598 661938
452784 220719
82908 584701
122922 594975
122948 560570
299530 763823
188104 713462
616843 846982
900140 201116
754567 30210
582827 230577
59018 993268
577301 13729
319717 323754
87472 773791
3445 751070
310113 35945
56725 390373
58877 205330
299165 866175
704796 297920
711741 188632
187294 917695
855562 583178
718884 311829
733272 957639
795471 72924
172354 339270
77990 77360
884716 932643
915458 192534
919250 286914
135983 877322
552798 580234
862299 460587
93017 278722
330402 776186
782526 656812
802941 71662
110514 667697
826464 90086
457139 663728
531658 597205
497378 477655
718188 149924
650297 707209
587219 509093
563852 983930
617453 637991
592278 112801
235864 897709
870208 770818
268698 420213
297944 302449
344430 124265
940489 701710
958503 761015
956279 581211
634609 861635
420222 879737
113625 238630
504466 519434
975005 795587
527454 278580
814607 736815
911807 119212
512335 487633
47260 966319
449013 276016
731077 507080
755050 349123
326259 900987
290191 658941
904303 436309
543860 979371
372321 190074
938633 28278
382842 985483
901574 134418
367424 750713
823926 963871
373893 694470
971446 685329
447189 568361
739951 977213
17343 455843
748394 882566
306762 420232
171245 902401
322716 241690
319989 667844
203020 859467
563763 16483
302969 206445
324798 288986
490432 579946
380543 593607
456078 925457
319378 1301
381801 797270
779071 797663
311935 610676
